{
    "photos": {
        "page": 1,
        "pages": 28,
        "perpage": 36,
        "total": 1000,
        "photo": [
            {
                "id": "30887326267",
                "owner": "9149295@N05",
                "secret": "d39276fea6",
                "server": "4831",
                "farm": 5,
                "title": "",
                "ispublic": 1,
                "isfriend": 0,
                "isfamily": 0,
                "url_m": "https:\\/\\/farm5.staticflickr.com\\/4831\\/30887326267_d39276fea6.jpg",
                "height_m": "375",
                "width_m": "500"
            },
            {
                "id": "31956316868",
                "owner": "158840794@N02",
                "secret": "b34cb3514e",
                "server": "4856",
                "farm": 5,
                "title": "Sports Clothing Store",
                "ispublic": 1,
                "isfriend": 0,
                "isfamily": 0,
                "url_m": "https:\\/\\/farm5.staticflickr.com\\/4856\\/31956316868_b34cb3514e.jpg",
                "height_m": "500",
                "width_m": "386"
            },
            {
                "id": "44010365660",
                "owner": "156923452@N02",
                "secret": "6b59f251df",
                "server": "4849",
                "farm": 5,
                "title": "East",
                "ispublic": 1,
                "isfriend": 0,
                "isfamily": 0,
                "url_m": "https:\\/\\/farm5.staticflickr.com\\/4849\\/44010365660_6b59f251df.jpg",
                "height_m": "281",
                "width_m": "500"
            },
            {
                "id": "44010367370",
                "owner": "139651280@N08",
                "secret": "bef7307790",
                "server": "4835",
                "farm": 5,
                "title": "\\u0627\\u0646\\u0633\\u062e \\u0627\\u0644\\u0643\\u0648\\u062f ( TOF7425 ) \\u0634\\u0627\\u0645\\u0628\\u0648 \\u0639\\u0636\\u0648\\u064a \\u0644\\u0644\\u0634\\u0639\\u0631 \\u0634\\u0627\\u0645\\u0628\\u0648 \\u0627\\u0644\\u062d\\u0635\\u0627\\u0646 \\u0645\\u0646 \\u0627\\u064a \\u0647\\u064a\\u0631\\u0628 \\u0627\\u0641\\u0636\\u0644 \\u0634\\u0627\\u0645\\u0628\\u0648 \\u0645\\u0646 \\u0627\\u064a \\u0647\\u064a\\u0631\\u0628 \\u0644\\u0644\\u0634\\u0639\\u0631 \\u0627\\u0644\\u062c\\u0627\\u0641 \\u0634\\u0627\\u0645\\u0628\\u0648 \\u0627\\u0641\\u0627\\u0644\\u0648\\u0646 \\u0627\\u0648\\u0631\\u062c\\u0627\\u0646\\u064a\\u0643 \\u0634\\u0627\\u0645\\u0628\\u0648 \\u0639\\u0636\\u0648\\u064a \\u0645\\u0646 \\u0627\\u0644\\u0635\\u064a\\u062f\\u0644\\u064a\\u0647 \\u0627\\u0641\\u0636\\u0644 \\u0634\\u0627\\u0645\\u0628\\u0648 \\u0639\\u0636\\u0648\\u064a \\u0644\\u0644\\u0634\\u0639\\u0631 \\u0627\\u0644\\u062f\\u0647\\u0646\\u064a \\u0634\\u0627\\u0645\\u0628\\u0648 \\u062c\\u064a\\u0648\\u0641\\u0627\\u0646\\u064a \\u0627\\u0641\\u0636\\u0644 \\u0645\\u0646\\u062a\\u062c\\u0627\\u062a \\u0627\\u064a \\u0647\\u064a\\u0631\\u0628 \\u0644\\u0644\\u0634\\u0639\\u0631 \\u0634\\u0627\\u0645\\u0628\\u0648 \\u0627\\u0641\\u0627\\u0644\\u0648\\u0646 \\u0645\\u0646 \\u0627\\u064a \\u0647\\u064a\\u0631\\u0628 \\u0627\\u0641\\u0636\\u0644 \\u0634\\u0627\\u0645\\u0628\\u0648 \\u0644\\u0644\\u0634\\u0639\\u0631 \\u0627\\u0644",
                "ispublic": 1,
                "isfriend": 0,
                "isfamily": 0,
                "url_m": "https:\\/\\/farm5.staticflickr.com\\/4835\\/44010367370_bef7307790.jpg",
                "height_m": "313",
                "width_m": "500"
            },
            {
                "id": "44010368390",
                "owner": "137975062@N03",
                "secret": "ece0da9d48",
                "server": "4817",
                "farm": 5,
                "title": "Blaue Wucht",
                "ispublic": 1,
                "isfriend": 0,
                "isfamily": 0,
                "url_m": "https:\\/\\/farm5.staticflickr.com\\/4817\\/44010368390_ece0da9d48.jpg",
                "height_m": "312",
                "width_m": "500"
            },
            {
                "id": "44010369290",
                "owner": "43256651@N07",
                "secret": "029fa94a29",
                "server": "4854",
                "farm": 5,
                "title": "Kingfisher 181111696.jpg",
                "ispublic": 1,
                "isfriend": 0,
                "isfamily": 0,
                "url_m": "https:\\/\\/farm5.staticflickr.com\\/4854\\/44010369290_029fa94a29.jpg",
                "height_m": "333",
                "width_m": "500"
            },
            {
                "id": "44010369410",
                "owner": "41298406@N07",
                "secret": "6421b4133e",
                "server": "4877",
                "farm": 5,
                "title": "",
                "ispublic": 1,
                "isfriend": 0,
                "isfamily": 0,
                "url_m": "https:\\/\\/farm5.staticflickr.com\\/4877\\/44010369410_6421b4133e.jpg",
                "height_m": "281",
                "width_m": "500"
            },
            {
                "id": "44010369500",
                "owner": "75106734@N04",
                "secret": "88a34ff03e",
                "server": "4864",
                "farm": 5,
                "title": "IMG_5924.JPG",
                "ispublic": 1,
                "isfriend": 0,
                "isfamily": 0,
                "url_m": "https:\\/\\/farm5.staticflickr.com\\/4864\\/44010369500_88a34ff03e.jpg",
                "height_m": "333",
                "width_m": "500"
            },
            {
                "id": "44010370180",
                "owner": "167230489@N03",
                "secret": "4bae58f3da",
                "server": "4878",
                "farm": 5,
                "title": "111118134531_magic roller ball toy dogs cats automatic hop mop cat self moving orbee qwerks t",
                "ispublic": 1,
                "isfriend": 0,
                "isfamily": 0,
                "url_m": "https:\\/\\/farm5.staticflickr.com\\/4878\\/44010370180_4bae58f3da.jpg",
                "height_m": "417",
                "width_m": "500"
            },
            {
                "id": "44913900735",
                "owner": "83780068@N05",
                "secret": "b8a426acd5",
                "server": "4911",
                "farm": 5,
                "title": "untitled (107 of 692).jpg",
                "ispublic": 1,
                "isfriend": 0,
                "isfamily": 0,
                "url_m": "https:\\/\\/farm5.staticflickr.com\\/4911\\/44913900735_b8a426acd5.jpg",
                "height_m": "333",
                "width_m": "500"
            },
            {
                "id": "44913900755",
                "owner": "143059895@N02",
                "secret": "6ca71d9499",
                "server": "4899",
                "farm": 5,
                "title": "Blumenstr\\u00e4u\\u00dfe auf der Oster-Messe in Dresden",
                "ispublic": 1,
                "isfriend": 0,
                "isfamily": 0,
                "url_m": "https:\\/\\/farm5.staticflickr.com\\/4899\\/44913900755_6ca71d9499.jpg",
                "height_m": "375",
                "width_m": "500"
            },
            {
                "id": "44913901985",
                "owner": "93341285@N04",
                "secret": "ba06b178c3",
                "server": "4814",
                "farm": 5,
                "title": "DSC_5552.jpg",
                "ispublic": 1,
                "isfriend": 0,
                "isfamily": 0,
                "url_m": "https:\\/\\/farm5.staticflickr.com\\/4814\\/44913901985_ba06b178c3.jpg",
                "height_m": "334",
                "width_m": "500"
            },
            {
                "id": "44913905285",
                "owner": "151726468@N06",
                "secret": "a5f7ab16e2",
                "server": "4830",
                "farm": 5,
                "title": "\\u062c\\u0648\\u0627\\u0646\\u0627\\u0646 \\u0627\\u0646\\u06af\\u06cc\\u0632\\u0647 \\u062e\\u0648\\u062f \\u0631\\u0627 \\u0628\\u0631\\u0627\\u06cc \\u0639\\u062f\\u0627\\u0644\\u062a \\u062e\\u0648\\u0627\\u0647\\u06cc \\u0627\\u0632 \\u062f\\u0633\\u062a \\u0646\\u062f\\u0647\\u0646\\u062f",
                "ispublic": 1,
                "isfriend": 0,
                "isfamily": 0,
                "url_m": "https:\\/\\/farm5.staticflickr.com\\/4830\\/44913905285_a5f7ab16e2.jpg",
                "height_m": "333",
                "width_m": "500"
            },
            {
                "id": "44913905495",
                "owner": "18259771@N00",
                "secret": "65e9ecf4ef",
                "server": "4913",
                "farm": 5,
                "title": "Lee Dongi: Atomaus having noodles",
                "ispublic": 1,
                "isfriend": 0,
                "isfamily": 0,
                "url_m": "https:\\/\\/farm5.staticflickr.com\\/4913\\/44913905495_65e9ecf4ef.jpg",
                "height_m": "500",
                "width_m": "500"
            },
            {
                "id": "45102472384",
                "owner": "139527896@N02",
                "secret": "a20a1c8abf",
                "server": "4889",
                "farm": 5,
                "title": "Wedding Cakes : Gorgeous royal worthy cake: www.stylemepretty... | Photography: Haley Photo - ha...",
                "ispublic": 1,
                "isfriend": 0,
                "isfamily": 0,
                "url_m": "https:\\/\\/farm5.staticflickr.com\\/4889\\/45102472384_a20a1c8abf.jpg",
                "height_m": "500",
                "width_m": "334"
            },
            {
                "id": "45102473554",
                "owner": "78096621@N07",
                "secret": "5e7994bf3b",
                "server": "4860",
                "farm": 5,
                "title": "pz_flkr-1.jpg",
                "ispublic": 1,
                "isfriend": 0,
                "isfamily": 0,
                "url_m": "https:\\/\\/farm5.staticflickr.com\\/4860\\/45102473554_5e7994bf3b.jpg",
                "height_m": "444",
                "width_m": "500"
            },
            {
                "id": "45102474714",
                "owner": "165293287@N06",
                "secret": "da24a4f2ce",
                "server": "4812",
                "farm": 5,
                "title": "Wedding Cakes : Gorgeous royal worthy cake: www.stylemepretty... | Photography: Haley Photo - ha...",
                "ispublic": 1,
                "isfriend": 0,
                "isfamily": 0,
                "url_m": "https:\\/\\/farm5.staticflickr.com\\/4812\\/45102474714_da24a4f2ce.jpg",
                "height_m": "500",
                "width_m": "334"
            },
            {
                "id": "45102477834",
                "owner": "23807199@N00",
                "secret": "64d3ae780a",
                "server": "4810",
                "farm": 5,
                "title": "International Terminal, San Francisco International Airport",
                "ispublic": 1,
                "isfriend": 0,
                "isfamily": 0,
                "url_m": "https:\\/\\/farm5.staticflickr.com\\/4810\\/45102477834_64d3ae780a.jpg",
                "height_m": "500",
                "width_m": "375"
            },
            {
                "id": "45102479454",
                "owner": "156517373@N06",
                "secret": "1619a1e709",
                "server": "4894",
                "farm": 5,
                "title": "Bastion Company Demo Range - 10 NOV 18",
                "ispublic": 1,
                "isfriend": 0,
                "isfamily": 0,
                "url_m": "https:\\/\\/farm5.staticflickr.com\\/4894\\/45102479454_1619a1e709.jpg",
                "height_m": "500",
                "width_m": "332"
            },
            {
                "id": "45102482404",
                "owner": "40062631@N00",
                "secret": "219a9458cf",
                "server": "4901",
                "farm": 5,
                "title": "L1009924",
                "ispublic": 1,
                "isfriend": 0,
                "isfamily": 0,
                "url_m": "https:\\/\\/farm5.staticflickr.com\\/4901\\/45102482404_219a9458cf.jpg",
                "height_m": "334",
                "width_m": "500"
            },
            {
                "id": "45102482884",
                "owner": "56833771@N00",
                "secret": "579d65a2e7",
                "server": "4854",
                "farm": 5,
                "title": "IMG_5575.jpg",
                "ispublic": 1,
                "isfriend": 0,
                "isfamily": 0,
                "url_m": "https:\\/\\/farm5.staticflickr.com\\/4854\\/45102482884_579d65a2e7.jpg",
                "height_m": "333",
                "width_m": "500"
            },
            {
                "id": "45102482934",
                "owner": "144329121@N08",
                "secret": "a2c70bea60",
                "server": "4884",
                "farm": 5,
                "title": "This image is taken from Page 106 of The Dental cosmos, 17, (1875)",
                "ispublic": 1,
                "isfriend": 0,
                "isfamily": 0,
                "url_m": "https:\\/\\/farm5.staticflickr.com\\/4884\\/45102482934_a2c70bea60.jpg",
                "height_m": "267",
                "width_m": "258"
            },
            {
                "id": "45777898272",
                "owner": "160442421@N04",
                "secret": "23368bf938",
                "server": "4850",
                "farm": 5,
                "title": "Festividade do Grupo \\u00c1gape (2018) - Consagra\\u00e7\\u00e3o - Gincana - Culto",
                "ispublic": 1,
                "isfriend": 0,
                "isfamily": 0,
                "url_m": "https:\\/\\/farm5.staticflickr.com\\/4850\\/45777898272_23368bf938.jpg",
                "height_m": "500",
                "width_m": "375"
            },
            {
                "id": "45777898692",
                "owner": "140915906@N04",
                "secret": "4c73618722",
                "server": "4840",
                "farm": 5,
                "title": "Untitled",
                "ispublic": 1,
                "isfriend": 0,
                "isfamily": 0,
                "url_m": "https:\\/\\/farm5.staticflickr.com\\/4840\\/45777898692_4c73618722.jpg",
                "height_m": "265",
                "width_m": "500"
            },
            {
                "id": "45777898712",
                "owner": "166111585@N05",
                "secret": "d024ae9662",
                "server": "4823",
                "farm": 5,
                "title": "Bistro Design",
                "ispublic": 1,
                "isfriend": 0,
                "isfamily": 0,
                "url_m": "https:\\/\\/farm5.staticflickr.com\\/4823\\/45777898712_d024ae9662.jpg",
                "height_m": "450",
                "width_m": "500"
            },
            {
                "id": "45777898932",
                "owner": "147494204@N07",
                "secret": "a36cd59dcd",
                "server": "4898",
                "farm": 5,
                "title": "Photo",
                "ispublic": 1,
                "isfriend": 0,
                "isfamily": 0,
                "url_m": "https:\\/\\/farm5.staticflickr.com\\/4898\\/45777898932_a36cd59dcd.jpg",
                "height_m": "492",
                "width_m": "500"
            },
            {
                "id": "45827105471",
                "owner": "79917318@N00",
                "secret": "995d9cd385",
                "server": "4809",
                "farm": 5,
                "title": "_7202711.jpg",
                "ispublic": 1,
                "isfriend": 0,
                "isfamily": 0,
                "url_m": "https:\\/\\/farm5.staticflickr.com\\/4809\\/45827105471_995d9cd385.jpg",
                "height_m": "281",
                "width_m": "500"
            },
            {
                "id": "45827106261",
                "owner": "140960719@N06",
                "secret": "b1e8f8d992",
                "server": "4820",
                "farm": 5,
                "title": "Wedding Cakes : Gorgeous royal worthy cake: www.stylemepretty... | Photography: Haley Photo - ha...",
                "ispublic": 1,
                "isfriend": 0,
                "isfamily": 0,
                "url_m": "https:\\/\\/farm5.staticflickr.com\\/4820\\/45827106261_b1e8f8d992.jpg",
                "height_m": "500",
                "width_m": "334"
            },
            {
                "id": "45827106321",
                "owner": "167480055@N05",
                "secret": "64ec3ab51a",
                "server": "4880",
                "farm": 5,
                "title": "I am a Simple Boy\\ud83d\\udeb6\\ud83d\\udc48  \\ud83d\\udc49Monirul Saikh 007\\ud83d\\udc48 My Hobbies Stylish Dance & Music My Favorites Friuts.Apple & Banana My Favourite Actor, Aamir Khan & Shahrukh Khan, And,RamcharanTeja My Favourite Actress,Kajal Agarwal , S",
                "ispublic": 1,
                "isfriend": 0,
                "isfamily": 0,
                "url_m": "https:\\/\\/farm5.staticflickr.com\\/4880\\/45827106321_64ec3ab51a.jpg",
                "height_m": "500",
                "width_m": "271"
            },
            {
                "id": "45827106421",
                "owner": "29332463@N00",
                "secret": "5ec97faae6",
                "server": "4840",
                "farm": 5,
                "title": "Farnham Park",
                "ispublic": 1,
                "isfriend": 0,
                "isfamily": 0,
                "url_m": "https:\\/\\/farm5.staticflickr.com\\/4840\\/45827106421_5ec97faae6.jpg",
                "height_m": "500",
                "width_m": "375"
            },
            {
                "id": "45827107831",
                "owner": "154080961@N05",
                "secret": "e2a04577f0",
                "server": "4900",
                "farm": 5,
                "title": "20181110_095429",
                "ispublic": 1,
                "isfriend": 0,
                "isfamily": 0,
                "url_m": "https:\\/\\/farm5.staticflickr.com\\/4900\\/45827107831_e2a04577f0.jpg",
                "height_m": "375",
                "width_m": "500"
            },
            {
                "id": "45827108851",
                "owner": "107085328@N06",
                "secret": "a6d5716484",
                "server": "4914",
                "farm": 5,
                "title": "Golden morning",
                "ispublic": 1,
                "isfriend": 0,
                "isfamily": 0,
                "url_m": "https:\\/\\/farm5.staticflickr.com\\/4914\\/45827108851_a6d5716484.jpg",
                "height_m": "333",
                "width_m": "500"
            },
            {
                "id": "45827109961",
                "owner": "142644470@N04",
                "secret": "6a6f7d4312",
                "server": "4864",
                "farm": 5,
                "title": "IMG_8941",
                "ispublic": 1,
                "isfriend": 0,
                "isfamily": 0,
                "url_m": "https:\\/\\/farm5.staticflickr.com\\/4864\\/45827109961_6a6f7d4312.jpg",
                "height_m": "333",
                "width_m": "500"
            },
            {
                "id": "45827110461",
                "owner": "151639852@N07",
                "secret": "f2fe8b4749",
                "server": "4879",
                "farm": 5,
                "title": "2017-05-13_22-15-21_ILCE-6500_DSC07957",
                "ispublic": 1,
                "isfriend": 0,
                "isfamily": 0,
                "url_m": "https:\\/\\/farm5.staticflickr.com\\/4879\\/45827110461_f2fe8b4749.jpg",
                "height_m": "500",
                "width_m": "281"
            },
            {
                "id": "45827111151",
                "owner": "64422330@N00",
                "secret": "91bd814364",
                "server": "4886",
                "farm": 5,
                "title": "A trav\\u00e9s de la niebla",
                "ispublic": 1,
                "isfriend": 0,
                "isfamily": 0,
                "url_m": "https:\\/\\/farm5.staticflickr.com\\/4886\\/45827111151_91bd814364.jpg",
                "height_m": "375",
                "width_m": "500"
            },
            {
                "id": "45827111761",
                "owner": "147213921@N07",
                "secret": "850e1ca305",
                "server": "4905",
                "farm": 5,
                "title": "Kuala Lumpur Week",
                "ispublic": 1,
                "isfriend": 0,
                "isfamily": 0,
                "url_m": "https:\\/\\/farm5.staticflickr.com\\/4905\\/45827111761_850e1ca305.jpg",
                "height_m": "424",
                "width_m": "500"
            }
        ]
    },
    "stat": "ok"
}
